{
  "kind": "collectionType",
  "collectionName": "box_folders",
  "info": {
    "singularName": "box-folder",
    "pluralName": "box-folders",
    "displayName": "Box_folder",
    "description": ""
  },
  "options": {
    "draftAndPublish": true
  },
  "pluginOptions": {},
  "attributes": {
    "title": {
      "type": "string",
      "required": true
    },
    "slug": {
      "type": "uid",
      "targetField": "title"
    },
    "box_folders": {
      "type": "relation",
      "relation": "oneToMany",
      "target": "api::box-folder.box-folder"
    },
    "box_posts": {
      "type": "relation",
      "relation": "manyToMany",
      "target": "api::box-post.box-post",
      "inversedBy": "box_folders"
    },
    "admin_user": {
      "type": "relation",
      "relation": "oneToOne",
      "target": "admin::user"
    }
  }
}
